module beego-sockets

go 1.17

require (
	github.com/astaxie/beego v1.12.3
	github.com/beego/i18n v0.0.0-20161101132742-e9308947f407
	github.com/beego/samples v0.0.0-20180420090448-1c696ee4905b
	github.com/gorilla/websocket v1.4.2
)

require (
	github.com/Unknwon/goconfig v1.0.0 // indirect
	github.com/beorn7/perks v1.0.1 // indirect
	github.com/cespare/xxhash/v2 v2.1.1 // indirect
	github.com/golang/protobuf v1.4.2 // indirect
	github.com/hashicorp/golang-lru v0.5.4 // indirect
	github.com/matttproud/golang_protobuf_extensions v1.0.1 // indirect
	github.com/prometheus/client_golang v1.7.0 // indirect
	github.com/prometheus/client_model v0.2.0 // indirect
	github.com/prometheus/common v0.10.0 // indirect
	github.com/prometheus/procfs v0.1.3 // indirect
	github.com/shiena/ansicolor v0.0.0-20151119151921-a422bbe96644 // indirect
	github.com/smartystreets/goconvey v1.7.2 // indirect
	golang.org/x/crypto v0.0.0-20191011191535-87dc89f01550 // indirect
	golang.org/x/net v0.0.0-20190620200207-3b0461eec859 // indirect
	golang.org/x/sys v0.0.0-20200615200032-f1bc736245b1 // indirect
	golang.org/x/text v0.3.0 // indirect
	google.golang.org/protobuf v1.23.0 // indirect
	gopkg.in/yaml.v2 v2.2.8 // indirect
)
